{
    "rules": {
        "curly": true,
        "forin": true,
        "no-console": [true, "log", "error"],
        "no-debugger": true,
        "no-eval": true,
        "no-null-keyword": true,
        "no-conditional-assignment": true,
        "no-unreachable": true,
        "trailing-comma": [true, {
            "multiline": "always",
            "singleline": "never"
        }],
        "max-file-line-count": [true, 300],
        "max-line-length": [true, 140],
        "member-ordering": [true,
            "public-before-private",
            "static-before-instance",
            "variables-before-functions"
        ],
        "no-default-export": true,
        "no-mergeable-namespace": true,
        "linebreak-style": [true, "LF"],
        "eofline": true,
        "class-name": true,
        "comment-format": [true, "check-space"],
        "indent": [true, "spaces"],
        "no-duplicate-variable": true,
        "no-eval": true,
        "no-internal-module": true,
        "no-trailing-whitespace": true,
        "no-var-keyword": true,
        "one-line": [true, "check-open-brace", "check-whitespace"],
        "quotemark": [true, "single"],
        "semicolon": false,
        "triple-equals": [true, "allow-null-check"],
        "typedef-whitespace": [true, {
            "call-signature": "nospace",
            "index-signature": "nospace",
            "parameter": "nospace",
            "property-declaration": "nospace",
            "variable-declaration": "nospace"
        }],
        "variable-name": [true, "ban-keywords"],
        "whitespace": [true,
            "check-branch",
            "check-decl",
            "check-operator",
            "check-separator",
            "check-type"
        ]
    }
}
